board.h:388:20:Board_NANDFLash_WriteCmd	16	static
board.h:398:20:Board_NANDFLash_WriteAddr	16	static
board.h:408:20:Board_NANDFLash_WriteByte	16	static
board.h:417:23:Board_NANDFLash_ReadByte	4	static
lpc_nandflash_k9f1g.c:64:6:lpc_nandflash_init	4	static
lpc_nandflash_k9f1g.c:68:6:lpc_nandflash_DeInit	4	static
lpc_nandflash_k9f1g.c:72:29:lpc_nandflash_get_size	4	static
lpc_nandflash_k9f1g.c:78:6:lpc_nandflash_get_id	24	static
lpc_nandflash_k9f1g.c:98:9:lpc_nandflash_read_status	16	static
lpc_nandflash_k9f1g.c:115:6:lpc_nandflash_erase_block	24	static
lpc_nandflash_k9f1g.c:135:10:lpc_nandflash_write_page	32	static
lpc_nandflash_k9f1g.c:165:6:lpc_nandflash_read_start	32	static
lpc_nandflash_k9f1g.c:187:6:lpc_nandflash_read_data	24	static
