cr_startup_lpc177x_8x.c:243:6:data_init	40	static
cr_startup_lpc177x_8x.c:252:6:bss_init	24	static
cr_startup_lpc177x_8x.c:278:1:ResetISR	24	static
cr_startup_lpc177x_8x.c:335:6:NMI_Handler	4	static
cr_startup_lpc177x_8x.c:340:6:HardFault_Handler	4	static
cr_startup_lpc177x_8x.c:346:6:MemManage_Handler	4	static
cr_startup_lpc177x_8x.c:351:6:BusFault_Handler	4	static
cr_startup_lpc177x_8x.c:356:6:UsageFault_Handler	4	static
cr_startup_lpc177x_8x.c:361:6:SVC_Handler	4	static
cr_startup_lpc177x_8x.c:366:6:DebugMon_Handler	4	static
cr_startup_lpc177x_8x.c:371:6:PendSV_Handler	4	static
cr_startup_lpc177x_8x.c:376:6:SysTick_Handler	4	static
cr_startup_lpc177x_8x.c:387:6:IntDefaultHandler	4	static
